 {
     "spectrum": [
            [
                3910.812586545944,
                3935.691472142935,
                3960.5703577399254,
                3985.449243336916,
                4010.3281289339066,
                4035.207014530897,
                4060.0859001278877,
                4084.9647857248783,
                4109.843671321869,
                4134.7225569188595,
                4159.60144251585,
                4184.480328112841,
                4209.359213709831,
                4234.23808068037,
                4259.116984903812,
                4283.995870500803,
                4308.874756097794,
                4333.753641694784,
                4358.632527291775,
                4383.511412888765,
                4408.390279859304,
                4433.2691840827465,
                4458.148069679737,
                4483.026936650276,
                4507.905840873718,
                4532.784726470709,
                4557.663612067699,
                4582.5424790382385,
                4607.421383261681,
                4632.300268858671,
                4657.17913582921,
                4682.058040052652,
                4706.936925649643,
                4731.815792620182,
                4756.694678217173,
                4781.573582440615,
                4806.452468037605,
                4831.331335008144,
                4856.2102392315865,
                4881.089124828577,
                4905.967991799116,
                4930.846877396107,
                4955.725781619549,
                4980.604648590088,
                5005.4835341870785,
                5030.362438410521,
                5055.241324007511,
                5080.12019097805,
                5104.999076575041,
                5129.877980798483,
                5154.756847769022,
                5179.635733366013,
                5204.514637589455,
                5229.393504559994,
                5254.272390156984,
                5279.151275753975,
                5304.030179977417,
                5328.909046947956,
                5353.787932544947,
                5378.666836768389,
                5403.545703738928,
                5428.424589335918,
                5453.303474932909,
                5478.1823605299,
                5503.06124612689,
                5527.940131723881,
                5552.819035947323,
                5577.697902917862,
                5602.5767885148525,
                5627.455674111843,
                5652.334559708834,
                5677.213445305824,
                5702.092330902815,
                5726.971216499805,
                5751.850102096796,
                5776.728987693787,
                5801.607873290777,
                5826.486758887768,
                5851.365644484758,
                5876.244530081749,
                5901.12341567874,
                5926.00230127573,
                5950.881186872721,
                5975.76005384326,
                6000.638958066702,
                6025.5178436636925,
                6050.396729260683,
                6075.275614857674,
                6100.154500454664,
                6125.033386051655,
                6149.912253022194,
                6174.791157245636,
                6199.670042842627,
                6224.548909813166,
                6249.427814036608,
                6274.306699633598,
                6299.185585230589,
                6324.064452201128,
                6348.94335642457,
                6373.822242021561,
                6398.7011089921,
                6423.580013215542,
                6448.458898812532,
                6473.3377657830715,
                6498.216651380062,
                6523.095555603504,
                6547.974441200495,
                6572.853308171034,
                6597.732212394476,
                6622.6110979914665,
                6647.489964962006,
                6672.368850558996,
                6697.247754782438,
                6722.126621752977,
                6747.005507349968,
                6771.88441157341,
                6796.763297170401,
                6821.64216414094,
                6846.52104973793,
                6871.399953961372,
                6896.2788209319115,
                6921.157706528902,
                6946.036610752344,
                6970.915477722883,
                6995.794363319874,
                7020.673248916864,
                7045.5521531403065,
                7070.431020110846,
                7095.309905707836,
                7120.188809931278,
                7145.067676901817,
                7169.946562498808,
                7194.8254480957985,
                7219.704333692789,
                7244.58321928978,
                7269.46210488677,
                7294.341009110212,
                7319.219876080751,
                7344.098761677742,
                7368.977647274733,
                7393.856532871723,
                7418.735418468714
            ],
            [
                0.3794104817789048,
                0.373910027788952,
                0.3728501524310559,
                0.37116839771624655,
                0.3670593239367008,
                0.36316269589588046,
                0.36209329729899764,
                0.3629763548960909,
                0.3629836734617129,
                0.36073408578522503,
                0.3570921332575381,
                0.3538611677940935,
                0.3520667355041951,
                0.3509951635496691,
                0.34896465949714184,
                0.3453005445189774,
                0.34098040184471756,
                0.33673638908658177,
                0.3316141968825832,
                0.3249150071060285,
                0.31811245961580426,
                0.3125683838734403,
                0.3062717253342271,
                0.2961100642569363,
                0.28337358427233994,
                0.27319725858978927,
                0.26801896863617003,
                0.26418402104172856,
                0.2571348382625729,
                0.2475624200887978,
                0.2394718276336789,
                0.23422194819431752,
                0.22979404428042471,
                0.2250679611461237,
                0.22134660929441452,
                0.21919481875374913,
                0.21652020164765418,
                0.21206507924944162,
                0.20794555416796356,
                0.20651033951435238,
                0.20656866522040218,
                0.20484376640524715,
                0.20064201415516436,
                0.19651660392992198,
                0.1944251791574061,
                0.19355606485623866,
                0.19233897561207414,
                0.19082492974121124,
                0.1904563067946583,
                0.19243411533534527,
                0.19630017189774662,
                0.20015271264128387,
                0.20183355594053864,
                0.20065062935464084,
                0.1987923055421561,
                0.19924744474701583,
                0.2021136786788702,
                0.204488794086501,
                0.20437319274060428,
                0.20325408480130136,
                0.20377654884941876,
                0.20571484649553895,
                0.20646735548507422,
                0.20522616524249315,
                0.20453634520526975,
                0.207044432987459,
                0.21201514638960361,
                0.21675129025243223,
                0.22008709679357708,
                0.22269683319609612,
                0.22481936879921705,
                0.22458560508675873,
                0.22001654747873545,
                0.2147998515283689,
                0.21444448723923415,
                0.21677462675143033,
                0.214729965897277,
                0.205154312774539,
                0.1968119025696069,
                0.19975997251458466,
                0.21039828297216445,
                0.21889638237189502,
                0.22099806705955416,
                0.2217612707754597,
                0.22549362143035978,
                0.22930827422533184,
                0.23157318297307938,
                0.23732533119618893,
                0.24762804515194148,
                0.2530738264322281,
                0.2443974163616076,
                0.22606207442004234,
                0.21382758649997413,
                0.21521230845246464,
                0.22389615012798458,
                0.23160196677781641,
                0.23782372591085732,
                0.24603470670990646,
                0.25480720959603786,
                0.25914367695804685,
                0.2568892406998202,
                0.25007048912812024,
                0.23752758873160928,
                0.22265820822212845,
                0.21261408389545977,
                0.2139959530904889,
                0.23174797871615738,
                0.25636760401539505,
                0.2697032690048218,
                0.25630107312463224,
                0.228949376498349,
                0.2197246307041496,
                0.23615398409310728,
                0.24695313698612154,
                0.22280441282782704,
                0.17465309204999357,
                0.14704446587711573,
                0.15483592136297375,
                0.16103447799105197,
                0.13545035116840154,
                0.10888790420722216,
                0.1262876910623163,
                0.1450659785186872,
                0.16963416279759258,
                0.2412586014252156,
                0.3514875015243888,
                0.4325706117087975,
                0.4832745547173545,
                0.5668311982881278,
                0.6804095421684906,
                0.7067787980195135,
                0.6047312151640654,
                0.44760987791232765,
                0.3073455255944282,
                0.2193371751345694,
                0.18382485979236662,
                0.16811262513510883,
                0.1416429183445871,
                0.11273277620784938,
                0.30425808555446565,
                0.7952535710064694,
                1.1752484058961272
            ],
            [
                3910.812586545944,
                3935.691472142935,
                3960.5703577399254,
                3985.449243336916,
                4010.3281289339066,
                4035.207014530897,
                4060.0859001278877,
                4084.9647857248783,
                4109.843671321869,
                4134.7225569188595,
                4159.60144251585,
                4184.480328112841,
                4209.359213709831,
                4234.23808068037,
                4259.116984903812,
                4283.995870500803,
                4308.874756097794,
                4333.753641694784,
                4358.632527291775,
                4383.511412888765,
                4408.390279859304,
                4433.2691840827465,
                4458.148069679737,
                4483.026936650276,
                4507.905840873718,
                4532.784726470709,
                4557.663612067699,
                4582.5424790382385,
                4607.421383261681,
                4632.300268858671,
                4657.17913582921,
                4682.058040052652,
                4706.936925649643,
                4731.815792620182,
                4756.694678217173,
                4781.573582440615,
                4806.452468037605,
                4831.331335008144,
                4856.2102392315865,
                4881.089124828577,
                4905.967991799116,
                4930.846877396107,
                4955.725781619549,
                4980.604648590088,
                5005.4835341870785,
                5030.362438410521,
                5055.241324007511,
                5080.12019097805,
                5104.999076575041,
                5129.877980798483,
                5154.756847769022,
                5179.635733366013,
                5204.514637589455,
                5229.393504559994,
                5254.272390156984,
                5279.151275753975,
                5304.030179977417,
                5328.909046947956,
                5353.787932544947,
                5378.666836768389,
                5403.545703738928,
                5428.424589335918,
                5453.303474932909,
                5478.1823605299,
                5503.06124612689,
                5527.940131723881,
                5552.819035947323,
                5577.697902917862,
                5602.5767885148525,
                5627.455674111843,
                5652.334559708834,
                5677.213445305824,
                5702.092330902815,
                5726.971216499805,
                5751.850102096796,
                5776.728987693787,
                5801.607873290777,
                5826.486758887768,
                5851.365644484758,
                5876.244530081749,
                5901.12341567874,
                5926.00230127573,
                5950.881186872721,
                5975.76005384326,
                6000.638958066702,
                6025.5178436636925,
                6050.396729260683,
                6075.275614857674,
                6100.154500454664,
                6125.033386051655,
                6149.912253022194,
                6174.791157245636,
                6199.670042842627,
                6224.548909813166,
                6249.427814036608,
                6274.306699633598,
                6299.185585230589,
                6324.064452201128,
                6348.94335642457,
                6373.822242021561,
                6398.7011089921,
                6423.580013215542,
                6448.458898812532,
                6473.3377657830715,
                6498.216651380062,
                6523.095555603504,
                6547.974441200495,
                6572.853308171034,
                6597.732212394476,
                6622.6110979914665,
                6647.489964962006,
                6672.368850558996,
                6697.247754782438,
                6722.126621752977,
                6747.005507349968,
                6771.88441157341,
                6796.763297170401,
                6821.64216414094,
                6846.52104973793,
                6871.399953961372,
                6896.2788209319115,
                6921.157706528902,
                6946.036610752344,
                6970.915477722883,
                6995.794363319874,
                7020.673248916864,
                7045.5521531403065,
                7070.431020110846,
                7095.309905707836,
                7120.188809931278,
                7145.067676901817,
                7169.946562498808,
                7194.8254480957985,
                7219.704333692789,
                7244.58321928978,
                7269.46210488677,
                7294.341009110212,
                7319.219876080751,
                7344.098761677742,
                7368.977647274733,
                7393.856532871723,
                7418.735418468714
            ],
            [
                0.3794104817789048,
                0.373910027788952,
                0.3728501524310559,
                0.37116839771624655,
                0.3670593239367008,
                0.36316269589588046,
                0.36209329729899764,
                0.3629763548960909,
                0.3629836734617129,
                0.36073408578522503,
                0.3570921332575381,
                0.3538611677940935,
                0.3520667355041951,
                0.3509951635496691,
                0.34896465949714184,
                0.3453005445189774,
                0.34098040184471756,
                0.33673638908658177,
                0.3316141968825832,
                0.3249150071060285,
                0.31811245961580426,
                0.3125683838734403,
                0.3062717253342271,
                0.2961100642569363,
                0.28337358427233994,
                0.27319725858978927,
                0.26801896863617003,
                0.26418402104172856,
                0.2571348382625729,
                0.2475624200887978,
                0.2394718276336789,
                0.23422194819431752,
                0.22979404428042471,
                0.2250679611461237,
                0.22134660929441452,
                0.21919481875374913,
                0.21652020164765418,
                0.21206507924944162,
                0.20794555416796356,
                0.20651033951435238,
                0.20656866522040218,
                0.20484376640524715,
                0.20064201415516436,
                0.19651660392992198,
                0.1944251791574061,
                0.19355606485623866,
                0.19233897561207414,
                0.19082492974121124,
                0.1904563067946583,
                0.19243411533534527,
                0.19630017189774662,
                0.20015271264128387,
                0.20183355594053864,
                0.20065062935464084,
                0.1987923055421561,
                0.19924744474701583,
                0.2021136786788702,
                0.204488794086501,
                0.20437319274060428,
                0.20325408480130136,
                0.20377654884941876,
                0.20571484649553895,
                0.20646735548507422,
                0.20522616524249315,
                0.20453634520526975,
                0.207044432987459,
                0.21201514638960361,
                0.21675129025243223,
                0.22008709679357708,
                0.22269683319609612,
                0.22481936879921705,
                0.22458560508675873,
                0.22001654747873545,
                0.2147998515283689,
                0.21444448723923415,
                0.21677462675143033,
                0.214729965897277,
                0.205154312774539,
                0.1968119025696069,
                0.19975997251458466,
                0.21039828297216445,
                0.21889638237189502,
                0.22099806705955416,
                0.2217612707754597,
                0.22549362143035978,
                0.22930827422533184,
                0.23157318297307938,
                0.23732533119618893,
                0.24762804515194148,
                0.2530738264322281,
                0.2443974163616076,
                0.22606207442004234,
                0.21382758649997413,
                0.21521230845246464,
                0.22389615012798458,
                0.23160196677781641,
                0.23782372591085732,
                0.24603470670990646,
                0.25480720959603786,
                0.25914367695804685,
                0.2568892406998202,
                0.25007048912812024,
                0.23752758873160928,
                0.22265820822212845,
                0.21261408389545977,
                0.2139959530904889,
                0.23174797871615738,
                0.25636760401539505,
                0.2697032690048218,
                0.25630107312463224,
                0.228949376498349,
                0.2197246307041496,
                0.23615398409310728,
                0.24695313698612154,
                0.22280441282782704,
                0.17465309204999357,
                0.14704446587711573,
                0.15483592136297375,
                0.16103447799105197,
                0.13545035116840154,
                0.10888790420722216,
                0.1262876910623163,
                0.1450659785186872,
                0.16963416279759258,
                0.2412586014252156,
                0.3514875015243888,
                0.4325706117087975,
                0.4832745547173545,
                0.5668311982881278,
                0.6804095421684906,
                0.7067787980195135,
                0.6047312151640654,
                0.44760987791232765,
                0.3073455255944282,
                0.2193371751345694,
                0.18382485979236662,
                0.16811262513510883,
                0.1416429183445871,
                0.11273277620784938,
                0.30425808555446565,
                0.7952535710064694,
                1.1752484058961272
            ],
            [
                142.0
            ]
        ]
    }